Google Sign-In
==============
Release-keystore
Server API Key help
AIzaSyDd5ObAkZ4lyzSvEmw9nJ4tLR9AODDL2R4

Debug-keystore SHA1
05:40:E2:3C:7E:2D:48:5A:96:78:9B:CB:55:55:13:92:9D:ED:EE:F0

Cloud-Messaging
===============
Server API Key help
AIzaSyDd5ObAkZ4lyzSvEmw9nJ4tLR9AODDL2R4

